<?xml version="1.0" encoding="UTF-8"?>
<svg width="1920px" height="1287px" viewBox="0 0 1920 1287" version="1.1" xmlns="http://www.w3.org/2000/svg" xmlns:xlink="http://www.w3.org/1999/xlink">
    <!-- Generator: Sketch 52.2 (67145) - http://www.bohemiancoding.com/sketch -->
    <title>Group 21</title>
    <desc>Created with Sketch.</desc>
    <defs>
        <linearGradient x1="50%" y1="97.506791%" x2="50%" y2="36.1606896%" id="linearGradient-1">
            <stop stop-color="#FFFFFF" offset="0%"></stop>
            <stop stop-color="#25ACB1" offset="100%"></stop>
        </linearGradient>
        <linearGradient x1="58.2331161%" y1="57.7191733%" x2="18.3960308%" y2="0%" id="linearGradient-2">
            <stop stop-color="#EBF1F7" offset="0%"></stop>
            <stop stop-color="#FFFFFF" offset="100%"></stop>
        </linearGradient>
        <linearGradient x1="6.80094787%" y1="61.386815%" x2="71.4736374%" y2="9.81950431%" id="linearGradient-3">
            <stop stop-color="#F6F9FC" stop-opacity="0" offset="0%"></stop>
            <stop stop-color="#FFFFFF" offset="100%"></stop>
        </linearGradient>
        <linearGradient x1="6.43080167%" y1="44.8312639%" x2="64.6395976%" y2="37.829495%" id="linearGradient-4">
            <stop stop-color="#FFFFFF" offset="0%"></stop>
            <stop stop-color="#FFFFFF" stop-opacity="0" offset="100%"></stop>
        </linearGradient>
        <path d="M0,1237 C191.489789,1158.59437 372.805308,1028.00163 543.946557,845.221795 C715.087806,662.441955 1173.77229,509.986562 1920,387.855615 L1920,342.036983 L0,332 L0,1237 Z" id="path-5"></path>
        <path d="M0,1287 C191.489789,1246.58706 372.805308,1134.99194 543.946557,952.214649 C715.087806,769.437354 1173.77229,616.984084 1920,494.854838 L1920,449.036843 L0,439 L0,1287 Z" id="path-6"></path>
        <linearGradient x1="65.5341743%" y1="73.3573561%" x2="18.3960308%" y2="0%" id="linearGradient-7">
            <stop stop-color="#EBF1F7" offset="0%"></stop>
            <stop stop-color="#FFFFFF" offset="100%"></stop>
        </linearGradient>
        <path d="M1233.48049,536.257813 C1627.84234,660.960938 1854.01551,854.208333 1912,1116 L1912,10 L0,10 C427.958475,236.135417 839.118639,411.554688 1233.48049,536.257813 Z" id="path-8"></path>
        <path d="M1242.69612,508.28125 C1637.05798,632.984375 1860.15927,845.557292 1912,1146 L1912,0 L0,0 C434.10223,214.151042 848.334271,383.578125 1242.69612,508.28125 Z" id="path-9"></path>
    </defs>
    <g id="R5" stroke="none" stroke-width="1" fill="none" fill-rule="evenodd">
        <g id="Woven-Homepage-v2---A">
            <g id="Group-21">
                <rect id="Rectangle" fill-opacity="0.12" fill="url(#linearGradient-1)" x="0" y="0" width="1920" height="864"></rect>
                <g id="Path-2" opacity="0.300000012" transform="translate(960.000000, 784.500000) scale(-1, -1) translate(-960.000000, -784.500000) ">
                    <use fill="url(#linearGradient-2)" xlink:href="#path-5"></use>
                    <use fill="url(#linearGradient-3)" xlink:href="#path-5"></use>
                    <use fill="url(#linearGradient-4)" xlink:href="#path-5"></use>
                </g>
                <g id="Path-2" opacity="0.5" transform="translate(960.000000, 863.000000) scale(-1, -1) translate(-960.000000, -863.000000) ">
                    <use fill="url(#linearGradient-2)" xlink:href="#path-6"></use>
                    <use fill="url(#linearGradient-3)" xlink:href="#path-6"></use>
                    <use fill="url(#linearGradient-4)" xlink:href="#path-6"></use>
                </g>
                <g id="Path-2" opacity="0.300000012" transform="translate(956.000000, 563.000000) scale(-1, -1) translate(-956.000000, -563.000000) ">
                    <use fill="url(#linearGradient-7)" xlink:href="#path-8"></use>
                    <use fill="url(#linearGradient-3)" xlink:href="#path-8"></use>
                    <use fill="url(#linearGradient-4)" xlink:href="#path-8"></use>
                </g>
                <g id="Path-2" opacity="0.600000024" transform="translate(956.000000, 573.000000) scale(-1, -1) translate(-956.000000, -573.000000) ">
                    <use fill="url(#linearGradient-7)" xlink:href="#path-9"></use>
                    <use fill="url(#linearGradient-3)" xlink:href="#path-9"></use>
                    <use fill="url(#linearGradient-4)" xlink:href="#path-9"></use>
                </g>
            </g>
        </g>
    </g>
</svg>